…
Next, we summarize within cities to get the total count of homicides and
the total count of unsolved homicides.

``` r
count_summ = homicide_data %>%
  group_by(city) %>%
  summarize(total_count = n(), # total homicide count by city
            unsolved_count = sum(disposition %in% c("Closed without arrest", "Open/No arrest"))) # total unsolved homicide count by city

count_summ
```

    ## # A tibble: 50 × 3
    ##    city        total_count unsolved_count
    ##    <chr>             <int>          <int>
    ##  1 Albuquerque         378            146
    ##  2 Atlanta             973            373
    ##  3 Baltimore          2827           1825
    ##  4 Baton Rouge         424            196
    ##  5 Birmingham          800            347
    ##  6 Boston              614            310
    ##  7 Buffalo             521            319
    ##  8 Charlotte           687            206
    ##  9 Chicago            5535           4073
    ## 10 Cincinnati          694            309
    ## # … with 40 more rows
…
We repeat the operations above for all cities in our dataset.

``` r
city_proptests = 
  purrr::map2_df(.x = count_summ$unsolved_count,
            .y = count_summ$total_count,
            ~broom::tidy(prop.test(.x, .y))) %>%
  select(estimate, conf.low, conf.high) %>%
  mutate(city = count_summ$city) %>%
  relocate(city)

city_proptests
```

    ## # A tibble: 50 × 4
    ##    city        estimate conf.low conf.high
    ##    <chr>          <dbl>    <dbl>     <dbl>
    ##  1 Albuquerque    0.386    0.337     0.438
    ##  2 Atlanta        0.383    0.353     0.415
    ##  3 Baltimore      0.646    0.628     0.663
    ##  4 Baton Rouge    0.462    0.414     0.511
    ##  5 Birmingham     0.434    0.399     0.469
    ##  6 Boston         0.505    0.465     0.545
    ##  7 Buffalo        0.612    0.569     0.654
    ##  8 Charlotte      0.300    0.266     0.336
    ##  9 Chicago        0.736    0.724     0.747
    ## 10 Cincinnati     0.445    0.408     0.483
    ## # … with 40 more rows
…
sim_results_at_0
```

    ## # A tibble: 5,000 × 4
    ##       mu  iter estimate p.value
    ##    <dbl> <int>    <dbl>   <dbl>
    ##  1     0     1   0.744    0.368
    ##  2     0     2  -0.0410   0.965
    ##  3     0     3   0.711    0.495
    ##  4     0     4  -1.21     0.153
    ##  5     0     5   0.718    0.374
    ##  6     0     6   0.999    0.355
    ##  7     0     7  -0.887    0.406
    ##  8     0     8   0.427    0.648
    ##  9     0     9  -0.141    0.895
    ## 10     0    10   0.837    0.437
    ## # … with 4,990 more rows
…
sim_results
```

    ## # A tibble: 30,000 × 4
    ##       mu  iter estimate p.value
    ##    <int> <int>    <dbl>   <dbl>
    ##  1     1     1    0.372 0.675  
    ##  2     1     2    0.966 0.293  
    ##  3     1     3    0.506 0.582  
    ##  4     1     4    3.22  0.00601
    ##  5     1     5    3.66  0.00108
    ##  6     1     6    0.217 0.829  
    ##  7     1     7    1.25  0.125  
    ##  8     1     8    2.00  0.0581 
    ##  9     1     9    0.300 0.804  
    ## 10     1    10    2.58  0.0332 
    ## # … with 29,990 more rows
…
